Chapter: "Kap. VIII – Europäisches Bankrecht mit LänderabschnittenGesellschaftsrecht", 
Chapter: "Kap. VIII – Europäisches Bankrecht mit Länderabschnittenerstreckt sich bei einem Darlehen die Freiheit des Kapitalverkehrs", 
Chapter: "Kap. VIII – Europäisches Bankrecht mit LänderabschnittenEGV steht daher zivilrechtlichen Regelungen entgegen", 
Chapter: "Kap. VIII – Europäisches Bankrecht mit Länderabschnittenrechtfertigen würden", 
Chapter: "Kap. VIII – Europäisches Bankrecht mit Länderabschnitten", 
Chapter: "Kap. VIII – Europäisches Bankrecht mit Länderabschnittenund weitere Finanzinstitute und bestimmte Einrichtungen der Finanzmärkte", 
Chapter: "Kap. VIII – Europäisches Bankrecht mit LänderabschnittenDer Begriff der deutschen Fassung ist missverständlich", 
Chapter: "Kap. VIII – Europäisches Bankrecht mit Länderabschnittenposition des Anlegers durch ein Schuldversprechen seines Intermediärs definieren und den Anleger nicht als Inhaber der Kapitalmarktrechte betrachten", 
Chapter: "Kap. VIII – Europäisches Bankrecht mit Länderabschnittenhandeln", 
Chapter: "Kap. VIII – Europäisches Bankrecht mit LänderabschnittenSicherungsrechte von diesem Stopp des Einzelzugriffs aus", 
Chapter: "Kap. VIII – Europäisches Bankrecht mit Länderabschnittendurch den der Sicherungsnehmer die Kontrolle über den Sicherungsgegenstand erlangt haben kann", 
SubChapter: "I. Bestellung von Sicherungsrechten. . . . . . . . . 3", 
SubChapter: "II. Bestand von Sicherungsrechten. . . . . . . . . . 14", 
SubChapter: "III. Mobilität von Sicherungsgut . . . . . . . . . . . . 21", 
SubChapter: "IV. Folgerungen für die Rechtsangleichung . . . 24", 
SubChapter: "I. Die EG-Richtlinie über Finanzsicherheiten . . . . . . . . . . . . . . . . . . . . . . . . . 261", 
SubChapter: "II. Andere EG-Richtlinien und Verordnungen . . . . . . . . . . . . . . . . . . . . . . . 62", 
SubSubChapter: "1. Schutz durch EG-Grundfreiheiten . . . . . . 3", 
SubSubChapter: "2. Mitgliedstaatliche Regelungen . . . . . . . . . 4", 
SubSubChapter: "1. Schutz durch EG-Grundfreiheiten . . . . . 14", 
SubSubChapter: "2. Mitgliedstaatliche Regelungen . . . . . . . . 15", 
SubSubChapter: "1. Schutz durch EG-Grundfreiheiten . . . . . 21", 
SubSubChapter: "2. Mitgliedstaatliche Regelung . . . . . . . . . . 22", 
SubSubChapter: "261. Regelungsgegenstand der Richtlinie. . . . 27", 
SubSubChapter: "2. Anwendungsbereich der Richtlinie. . . . . 28", 
SubSubChapter: "4. Bestellung von Sicherungsrechten . . . . . 43", 
SubSubChapter: "5. Publizität und Nachvollziehbarkeitdes Sicherungsrechts. . . . . . . . . . . . . . . . 44", 
SubSubChapter: "6. Verfügungen über denSicherungsgegenstand während der Sicherungszeit. . . . . . . . . . . . . . . . . . 51", 
SubSubChapter: "7. Verwertung des Sicherungsgegenstands im Sicherungsfall . . . . . . . . . . . . . 54", 
SubSubChapter: "8. Insolvenz des Sicherungsgebers . . . . . . . 55", 
SubSubChapter: "9. Kollisionsrecht . . . . . . . . . . . . . . . . . . . . 58", 
SubSubChapter: "8 . . . . . . . . . . . . . . . . . 32", 
SubSubChapter: "9 . . . . . . . . . . . . . . . . . . . . . . .27", 
Part: "A. Primäres Gemeinschaftsrecht: Einwirkung der Grundfreiheiten des EG-Vertrags auf die nationalen Kreditsicherungsrechte . . . . . . . . . . . 1", 
Part: "B. Sekundäres Gemeinschaftsrecht . . . . . . . . . . . . 25", 
GESETZ: "§ 1 VO vom 30.10.1997 über Grundpfandrechte in ausländischer Währung, BGB", 
GESETZ: "§ 1 XVII 2 KWG", 
GESETZ: "§ 1 XVII 1 KWG", 
GESETZ: "§ 1206 Alt. 2 BGB", 
GESETZ: "§ 1 XVII 1 KWG", 
GESETZ: "§ 1221 BGB", 
GESETZ: "§ 1259 und § 1279 S. 2 BGB", 
GESETZ: "§ 1279 S. 2 BGB", 
GESETZ: "§ 1259 und § 1279 S. 2 BGB", 
GESETZ: "§ 1279 S. 2 BGB", 
GESETZ: "§ 166 I, II InsO", 
GESETZ: "§ 166 III, 21 II 2 und 223 I 2 InsO", 
GESETZ: "§ 1 XVII KWG", 
GESETZ: "Art. 8 III; in Deutschland § 130 I 2 InsO", 
GESETZ: "§ 130 I 2 InsO", 
GESETZ: "Art. 8 II für die Bestellung nach Beschluss; im deutschen Recht § 81 III 2 InsO", 
GESETZ: "§ 81 III 2 InsO", 
GESETZ: "§ 17a DepG, der sich nicht auf § 1 XVII KWG", 
GESETZ: "§ 1 XVII KWG", 
REF: "§ 1 VO vom 30.10.1997 über Grundpfandrechte in ausländischer Währung, BGB", 
REF: "§ 1 XVII 2 KWG", 
REF: "§ 1 XVII 1 KWG", 
REF: "§ 1206 Alt. 2 BGB", 
REF: "§ 1 XVII 1 KWG", 
REF: "§ 1221 BGB", 
REF: "§ 1259 und § 1279 S. 2 BGB", 
REF: "§ 1279 S. 2 BGB", 
REF: "§ 1259 und § 1279 S. 2 BGB", 
REF: "§ 1279 S. 2 BGB", 
REF: "§ 166 I, II InsO", 
REF: "§ 166 III, 21 II 2 und 223 I 2 InsO", 
REF: "§ 1 XVII KWG", 
REF: "Art. 8 III; in Deutschland § 130 I 2 InsO", 
REF: "§ 130 I 2 InsO", 
REF: "Art. 8 II für die Bestellung nach Beschluss; im deutschen Recht § 81 III 2 InsO", 
REF: "§ 81 III 2 InsO", 
REF: "§ 17a DepG, der sich nicht auf § 1 XVII KWG", 
REF: "§ 1 XVII KWG", 
RFC_NE(patternwithbrackets): "der Sicherungsgegenstand bereitgestellt wurde (§ 1 XVII 1 KWG)", 
