Chapter: "Kap. I – Bankvertragliche Grundlagen", 
Chapter: "Kap. I – Bankvertragliche Grundlagen", 
Chapter: "Kap. I – Bankvertragliche Grundlagen", 
Chapter: "Kap. I – Bankvertragliche Grundlagen", 
Chapter: "Kap. I – Bankvertragliche Grundlagen", 
Chapter: "Kap. I – Bankvertragliche Grundlagen", 
Chapter: "Kap. I – Bankvertragliche Grundlagen", 
SubChapter: "I. Begründung der dauernden Geschäftsverbindung zwischen Bank und Kundeals Ausgangspunkt. . . . . . . . . . . . . . . . . . . . 1", 
SubChapter: "II. Rechtsrahmen . . . . . . . . . . . . . . . . . . . . . . . 3", 
SubChapter: "I. Stand der Rechtsprechung. . . . . . . . . . . . . . 61", 
SubChapter: "II. Meinungsstand im Schrifttum. . . . . . . . . . 141", 
SubChapter: "I. Dauernde Geschäftsverbindung alsgesetzliches Schuldverhältnis . . . . . . . . . . 41", 
SubChapter: "II. Rechtsprechung. . . . . . . . . . . . . . . . . . . . . 45", 
SubChapter: "III. Vertrauenshaftung kraft Geschäftsverbindung bei Unwirksamkeitdes Bankvertrages . . . . . . . . . . . . . . . . . . . 47", 
SubSubChapter: "61. Bisherige Rechtsprechung . . . . . . . . . . . 62", 
SubSubChapter: "24. September2002 – XI ZR 345/01 –und seine Fallgestaltung. . . . . . . . . . . . . 73", 
SubSubChapter: "73. Kein allgemeiner Bankvertrag ausdauernder Geschäftsverbindung. . . . . . . 94", 
SubSubChapter: "94. Kein allgemeiner Bankvertrag ausVereinbarung der AllgemeinenGeschäftsbedingungen . . . . . . . . . . . . . 105", 
SubSubChapter: "105. „Allgemeiner Bankvertrag“ undVertragsbegriff . . . . . . . . . . . . . . . . . . . 116", 
SubSubChapter: "116. Kein Kontrahierungszwang für„risikoneutrale“ Bankgeschäfte . . . . . . 127", 
SubSubChapter: "127. Überflüssige Rechtsfigur . . . . . . . . . . . 13", 
SubSubChapter: "141. Befürworter des„allgemeinen Bankvertrages“ . . . . . . . 152", 
SubSubChapter: "152. Gegner des„allgemeinen Bankvertrages“ . . . . . . . 203", 
SubSubChapter: "203. Vertragstyp des„allgemeinen Bankvertrages“ . . . . . . . 224", 
SubSubChapter: "224. Das Verhältnis des allgemeinenBankvertrages zu den einzelnenBankgeschäften . . . . . . . . . . . . . . . . . . 235", 
SubSubChapter: "235. Allgemeine Verhaltenspflichtender Bank und des Kunden . . . . . . . . . . 336", 
SubSubChapter: "336. Bankgeheimnis . . . . . . . . . . . . . . . . . . 357", 
SubSubChapter: "357. Beendigung des allgemeinenBankverhältnisses . . . . . . . . . . . . . . . . 38", 
Part: "A. „Allgemeiner Bankvertrag“ und Geschäftsverbindung zwischen Bank und Kunde. . . . . . . . 1", 
Part: "B. Zur Lehre vom „allgemeinen Bankvertrag“ . . . . 6", 
Part: "C. Lehre vom „Vertrauensverhältnis kraftGeschäftsverbindung“ . . . . . . . . . . . . . . . . . . . . 41", 
GESETZ: "§ 675 BGB", 
GESETZ: "§ 676a Abs. 1 Satz 1 BGB", 
GESETZ: "§ 676a Abs. 1 Satz 3 BGB", 
GESETZ: "§ 362 Abs. 1 HGB", 
GESETZ: "§ 676f Satz 1 BGB", 
GESETZ: "§ 493 Abs. 1 BGB", 
GESETZ: "§ 676a Abs. 2 Satz 3 a.E. BGB", 
GESETZ: "§ 305 Abs. 3BGB", 
GESETZ: "§ 667 BGB", 
GESETZ: "§ 305 Abs. 3 BGB", 
GESETZ: "§ 2 Abs. 2 AGBG", 
GESETZ: "§ 305Abs. 3 BGB", 
GESETZ: "§ 2 Abs. 2 AGBG", 
GESETZ: "§ 305 Abs. 3 BGB", 
GESETZ: "§ 2 Abs. 2 AGBG", 
GESETZ: "§ 305 Abs. 2 BGB", 
GESETZ: "§ 2 Abs. 1 AGBG", 
GESETZ: "§ 305 Abs. 3 BGB", 
GESETZ: "§ 2 Abs. 2 AGBG", 
GESETZ: "§ 675 Abs. 1, 611 Abs. 1 BGB", 
GESETZ: "§ 607 BGB", 
GESETZ: "§ 104Abs. 2 InsO", 
GESETZ: "§ 133, 157 BGB", 
GESETZ: "§ 133,157 BGB", 
GESETZ: "§ 133, 157 BGB", 
GESETZ: "§ 362 Abs. 1 HGB", 
GESETZ: "§ 675 Abs. 1, 611 Abs. 1 BGB", 
GESETZ: "§ 675 Abs. 1 BGB", 
GESETZ: "§ 488 Abs. 1, 675Abs. 1, 433 Abs. 1 BGB", 
GESETZ: "§ 675 Abs. 1, 611 Abs. 1BGB", 
GESETZ: "§ 133, 157 BGB", 
GESETZ: "§ 139 BGB", 
GESETZ: "§ 280 Abs. 1 BGB", 
GESETZ: "Art. 1und 2 Abs. 1 GG", 
GESETZ: "§ 24c KWG", 
GESETZ: "§ 116, 115 Abs.1 InsO", 
GESETZ: "§ 343 HGB", 
GESETZ: "§ 311 Abs. 2 BGB", 
GESETZ: "§ 242 BGB", 
GESETZ: "§ 311 Abs. 2 BGB", 
REF: "§ 675 BGB", 
REF: "§ 676a Abs. 1 Satz 1 BGB", 
REF: "§ 676a Abs. 1 Satz 3 BGB", 
REF: "§ 362 Abs. 1 HGB", 
REF: "§ 676f Satz 1 BGB", 
REF: "§ 493 Abs. 1 BGB", 
REF: "§ 676a Abs. 2 Satz 3 a.E. BGB", 
REF: "§ 305 Abs. 3BGB", 
REF: "§ 667 BGB", 
REF: "§ 305 Abs. 3 BGB", 
REF: "§ 2 Abs. 2 AGBG", 
REF: "§ 305Abs. 3 BGB", 
REF: "§ 2 Abs. 2 AGBG", 
REF: "§ 305 Abs. 3 BGB", 
REF: "§ 2 Abs. 2 AGBG", 
REF: "§ 305 Abs. 2 BGB", 
REF: "§ 2 Abs. 1 AGBG", 
REF: "§ 305 Abs. 3 BGB", 
REF: "§ 2 Abs. 2 AGBG", 
REF: "§ 675 Abs. 1, 611 Abs. 1 BGB", 
REF: "§ 607 BGB", 
REF: "§ 104Abs. 2 InsO", 
REF: "§ 133, 157 BGB", 
REF: "§ 133,157 BGB", 
REF: "§ 133, 157 BGB", 
REF: "§ 362 Abs. 1 HGB", 
REF: "§ 675 Abs. 1, 611 Abs. 1 BGB", 
REF: "§ 675 Abs. 1 BGB", 
REF: "§ 488 Abs. 1, 675Abs. 1, 433 Abs. 1 BGB", 
REF: "§ 675 Abs. 1, 611 Abs. 1BGB", 
REF: "§ 133, 157 BGB", 
REF: "§ 139 BGB", 
REF: "§ 280 Abs. 1 BGB", 
REF: "Art. 1und 2 Abs. 1 GG", 
REF: "§ 24c KWG", 
REF: "§ 116, 115 Abs.1 InsO", 
REF: "§ 343 HGB", 
REF: "§ 311 Abs. 2 BGB", 
REF: "§ 242 BGB", 
REF: "§ 311 Abs. 2 BGB", 
RFC_NE(posPatterNeDef2): "die AGB, ohne dass es einer erneuten Einbeziehung nach § 305 Abs. 2 BGB", 
RFC_NE(patternAufz): "Insolvenzverfahrens wird der Bankvertrag als Geschäftsbesorgungsvertrag gemäß §§ 116, 115 Abs.1 InsO beendet", 
RFC_NE(patternwithbrackets): "einen Überweisungsvertrag (§ 676a Abs. 1 Satz 1 BGB; frühersog. „Einzelüberweisungsauftrag“)", 
RFC_NE(patternwithbrackets): "den Geldbetrag der Überweisung in bar(vgl. § 676a Abs. 1 Satz 3 BGB)", 
RFC_NE(patternwithbrackets): "Dauer angelegte Geschäftsverbindung (vgl. § 362 Abs. 1 HGB)", 
RFC_NE(patternwithbrackets): "ein Girokonto eröffnet(§ 676f Satz 1 BGB)", 
RFC_NE(patternwithbrackets): "die Geltung der Allgemeinen Geschäftsbedingungender Kreditinstitute im Rechtsverhältnis mit dem Kunden darstellen (vgl. § 305 Abs. 3BGB)", 
RFC_NE(patternwithbrackets): "Geschäftsbesorgung gerichteter Dienstvertrag sei(§§ 675 Abs. 1, 611 Abs. 1 BGB)", 
RFC_NE(patternwithbrackets): "eine Frage der Vertragsauslegung (§§ 133,157 BGB)", 
RFC_NE(patternwithbrackets): "Vertragspartner erwartet, es also als Vertragsbestandteil ansieht und die Bank dies ebenfalls so betrachtet oder jedenfalls den Kunden in der Erwartung belässt (§§ 133, 157 BGB)", 
RFC_NE(patternwithbrackets): "den Kunden in der Erwartung belässt (§§ 133, 157 BGB)", 
RFC_NE(patternwithbrackets): "eine Geschäftsbesorgung gerichtet ist (§§ 675 Abs. 1, 611 Abs. 1 BGB)", 
RFC_NE(patternwithbrackets): "unterschiedlichen Vertragstypen wie beispielsweise dem Geschäftsbesorgungsvertrag (§ 675 Abs. 1 BGB)", 
RFC_NE(patternwithbrackets): "dem versprochenen Kredit bereits Elemente des entsprechenden Vertragstyps (§§ 488 Abs. 1, 675Abs. 1, 433 Abs. 1 BGB, Garantievertrag)", 
RFC_NE(patternwithbrackets): "Bedingungen erbringt, willkürlich anders behandelt (§§ 133, 157 BGB)", 
RFC_NE(patternwithbrackets): "das Bankgeheimnis als Ausprägung des allgemeinen Persönlichkeitsrechts (Art. 1und 2 Abs. 1 GG)", 
RFC_NE(patternwithbrackets): "eine Offenbarung erfordern (vgl. BVerfGE 118, 168 = ZIP 2007, 1356 = WM 2007, 1360 = NJW2007, 2464 m. Anm. v. Erm/Glatzek, EWiR 2008, 189; Geschwandtner/Lichtinghagen,WuB I L 1 § 24c KWG 1.08; Götzenberger, StB 2007, 425; Wenner, SozSich 2007, 316)", 
RFC_NE(patternwithbrackets): "gesetzliches Schuldverhältnis ohne primäre Leistungspflichtqualifiziert (Müller-Graff, JZ 1976, 153; Canaris, Anm. 12, 14; Karsten Schmidt, HandelsR, § 20 I 3, S. 603 ff.; Baumbach-Hopt, Vor § 343 HGB, Rn. 3)", 
RFC_NE(patternwithbrackets): "ein Anbahnungsverhältnis (§ 311 Abs. 2 BGB; culpa in contrahendo)", 
RFC_NE(patternwithbrackets): "einem Einmalgeschäft istAnspruchsgrundlage culpa in contrahendo (§ 311 Abs. 2 BGB)", 
